{
  "manufacturerDescription": "AMBER T200 Film, 27EXP 35MM, is a motion picture film that gives distinct colors and looks when used in different lighting conditions. It is excellent for low-light situations and becomes a cool blue tone if shot in daylight.",
  "boxSpeed": 200,
  "color": "color",
  "process": "C41",
  "formats": [
    "135-27"
  ]
}