{
  "manufacturerDescription": "Introducing TREAT! An iso400 color C41 film based on Kodak vision 250D with the protective remjet layer removed. TREAT is daylight balanced so works great in many conditions and produces stunning colors. It also has the same halo effects as our CINEMA film; when very bright highlights meet shadows.",
  "boxSpeed": 400,
  "color": "color",
  "process": "C41",
  "formats": [
    "135-36"
  ]
}