{
  "manufacturerDescription": "ILFORD FP4 PLUS is a medium speed, all-purpose black & white film with very fine grain and outstanding sharpness. It has superb exposure latitude above and below its ISO 125, (meaning it can be both push or pull-processed). This makes FP4 PLUS a highly capable film for most photographic subjects, scenarios and lighting conditions. It particularly excels at highly detailed subjects in good indoor and outdoor lighting conditions and is therefore an ideal film for portraits, fashion, street, product photography, landscapes and architecture. FP4 PLUS can be processed in a wide range of different developers using spiral tanks, deep tanks and automatic processors.",
  "boxSpeed": 125,
  "color": "b&w",
  "spectrum": "panchromatic",
  "process": "b&w",
  "datasheets": {
    "en": "https://www.ilfordphoto.com/amfile/file/download/file/1919/product/686/"
  },
  "latitude": {
    "over": 6,
    "under": 2
  },
  "formats": {
    "135-36": {
      "base": "acetate",
      "baseThickness": 0.125
    },
    "135-24": {
      "base": "acetate",
      "baseThickness": 0.125
    },
    "120": {
      "base": "acetate",
      "baseThickness": 0.110
    },
    "sheet": {
      "base": "polyester",
      "baseThickness": 0.180
    }
  },
  "spectralSensitivity": [
    {
      "wavelength":400,
      "sensitivity": 0.5
    },
    {
      "wavelength":450,
      "sensitivity": 0.75
    },
    {
      "wavelength":500,
      "sensitivity": 0.75
    },
    {
      "wavelength":550,
      "sensitivity": 0.8
    },
    {
      "wavelength":600,
      "sensitivity": 1.0
    },
    {
      "wavelength":650,
      "sensitivity": 0.25
    }
  ],
  "reciprocityFailure": [
    {
      "tStart": 1.0,
      "p": 1.26
    }
  ]
}